tb/test_out/3_lbu_sb/waveform.vcd
$version Generated by VerilatedVcd $end
$date Wed Nov 27 20:45:11 2024 $end
$timescale 1ps $end

 $scope module TOP $end
  $var wire 32 j a0 [31:0] $end
  $var wire  1 g clk $end
  $var wire  1 h rst $end
  $var wire  1 i trigger $end
  $scope module top $end
   $var wire 32 - ALUResult [31:0] $end
   $var wire  1 * ALUSrc $end
   $var wire  3 ( ALUctrl [2:0] $end
   $var wire 32 k DATA_WIDTH [31:0] $end
   $var wire 32 $ ImmExt [31:0] $end
   $var wire  1 + MemWrite $end
   $var wire  1 % PCSrc $end
   $var wire  1 0 PcOp $end
   $var wire  1 ) RegWrite $end
   $var wire 32 / Result [31:0] $end
   $var wire  1 , ResultSrc $end
   $var wire 32 . WriteData [31:0] $end
   $var wire 32 j a0 [31:0] $end
   $var wire  1 ' branch_l $end
   $var wire  1 g clk $end
   $var wire 32 & instr [31:0] $end
   $var wire  1 1 jalr $end
   $var wire 32 # pc [31:0] $end
   $var wire 32 2 rs1 [31:0] $end
   $var wire  1 h rst $end
   $var wire  1 i trigger $end
   $var wire  1 i unused_trigger $end
   $scope module decode $end
    $var wire  1 * ALUSrc $end
    $var wire  3 ( ALUctrl [2:0] $end
    $var wire 32 k DATA_WIDTH [31:0] $end
    $var wire 32 $ ImmExt [31:0] $end
    $var wire  3 3 ImmSrc [2:0] $end
    $var wire  1 + MemWrite $end
    $var wire  1 % PCSrc $end
    $var wire  1 0 PcOp $end
    $var wire  1 ) RegWrite $end
    $var wire  1 , ResultSrc $end
    $var wire  1 ' branch_l $end
    $var wire 32 & instr [31:0] $end
    $var wire  1 1 jalr $end
    $scope module control_unit $end
     $var wire  2 8 ALUOp [1:0] $end
     $var wire  1 * ALUSrc $end
     $var wire  3 ( ALUctrl [2:0] $end
     $var wire  3 3 ImmSrc [2:0] $end
     $var wire  1 + MemWrite $end
     $var wire  1 % PCSrc $end
     $var wire  1 0 PcOp $end
     $var wire  1 ) RegWrite $end
     $var wire  1 , ResultSrc $end
     $var wire  1 7 branch $end
     $var wire  1 ' branch_l $end
     $var wire  3 5 funct3 [2:0] $end
     $var wire  1 6 funct7_5 $end
     $var wire  1 1 jalr $end
     $var wire  7 4 op [6:0] $end
     $scope module alu_decode $end
      $var wire  2 8 ALUOp [1:0] $end
      $var wire  3 ( ALUctrl [2:0] $end
      $var wire  1 9 Op_5 $end
      $var wire  3 5 funct3 [2:0] $end
      $var wire  1 6 funct7_5 $end
     $upscope $end
     $scope module main_decode $end
      $var wire  2 8 ALUOp [1:0] $end
      $var wire  1 * ALUSrc $end
      $var wire  1 7 Branch $end
      $var wire  3 3 ImmSrc [2:0] $end
      $var wire  1 + MemWrite $end
      $var wire  1 0 PcOp $end
      $var wire  1 ) RegWrite $end
      $var wire  1 , ResultSrc $end
      $var wire  7 4 op [6:0] $end
     $upscope $end
    $upscope $end
    $scope module sign_extend $end
     $var wire 32 k DATA_WIDTH [31:0] $end
     $var wire 25 : Imm [31:7] $end
     $var wire 32 $ ImmExt [31:0] $end
     $var wire  3 3 ImmSrc [2:0] $end
    $upscope $end
   $upscope $end
   $scope module execute $end
    $var wire 32 - ALUResult [31:0] $end
    $var wire  1 * ALUSrc $end
    $var wire  3 ( ALUctrl [2:0] $end
    $var wire 32 ? ALUop1 [31:0] $end
    $var wire 32 > ALUop2 [31:0] $end
    $var wire 32 @ ALUop2_f [31:0] $end
    $var wire 32 k DATA_WIDTH [31:0] $end
    $var wire 32 $ ImmExt [31:0] $end
    $var wire  1 0 PcOp $end
    $var wire  1 ) RegWrite $end
    $var wire 32 / Result [31:0] $end
    $var wire 32 . WriteData [31:0] $end
    $var wire 32 j a0 [31:0] $end
    $var wire  1 ' branch_l $end
    $var wire  1 g clk $end
    $var wire  5 = instr_11_7 [11:7] $end
    $var wire  5 ; instr_19_15 [19:15] $end
    $var wire  5 < instr_24_20 [24:20] $end
    $var wire 32 # pc [31:0] $end
    $var wire 32 2 rs1 [31:0] $end
    $scope module ALuSrc1Sel $end
     $var wire 32 k DATA_WIDTH [31:0] $end
     $var wire 32 2 in0 [31:0] $end
     $var wire 32 # in1 [31:0] $end
     $var wire 32 ? out [31:0] $end
     $var wire  1 0 sel $end
    $upscope $end
    $scope module ALuSrc2Sel $end
     $var wire 32 k DATA_WIDTH [31:0] $end
     $var wire 32 . in0 [31:0] $end
     $var wire 32 $ in1 [31:0] $end
     $var wire 32 > out [31:0] $end
     $var wire  1 * sel $end
    $upscope $end
    $scope module AluSrc2PcOpSel $end
     $var wire 32 k DATA_WIDTH [31:0] $end
     $var wire 32 > in0 [31:0] $end
     $var wire 32 l in1 [31:0] $end
     $var wire 32 @ out [31:0] $end
     $var wire  1 0 sel $end
    $upscope $end
    $scope module alu $end
     $var wire  3 ( ALUctrl [2:0] $end
     $var wire 32 ? ALUop1 [31:0] $end
     $var wire 32 @ ALUop2 [31:0] $end
     $var wire 32 - ALUout [31:0] $end
     $var wire 32 k DATA_WIDTH [31:0] $end
     $var wire  1 ' branch_l $end
    $upscope $end
    $scope module reg_file $end
     $var wire  5 ; AD1 [4:0] $end
     $var wire  5 < AD2 [4:0] $end
     $var wire  5 = AD3 [4:0] $end
     $var wire 32 m ADDRESS_WIDTH [31:0] $end
     $var wire 32 k DATA_WIDTH [31:0] $end
     $var wire 32 2 RD1 [31:0] $end
     $var wire 32 . RD2 [31:0] $end
     $var wire 32 / WD3 [31:0] $end
     $var wire  1 ) WE3 $end
     $var wire 32 j a0 [31:0] $end
     $var wire  1 g clk $end
     $var wire 32 A registers[0] [31:0] $end
     $var wire 32 K registers[10] [31:0] $end
     $var wire 32 L registers[11] [31:0] $end
     $var wire 32 M registers[12] [31:0] $end
     $var wire 32 N registers[13] [31:0] $end
     $var wire 32 O registers[14] [31:0] $end
     $var wire 32 P registers[15] [31:0] $end
     $var wire 32 Q registers[16] [31:0] $end
     $var wire 32 R registers[17] [31:0] $end
     $var wire 32 S registers[18] [31:0] $end
     $var wire 32 T registers[19] [31:0] $end
     $var wire 32 B registers[1] [31:0] $end
     $var wire 32 U registers[20] [31:0] $end
     $var wire 32 V registers[21] [31:0] $end
     $var wire 32 W registers[22] [31:0] $end
     $var wire 32 X registers[23] [31:0] $end
     $var wire 32 Y registers[24] [31:0] $end
     $var wire 32 Z registers[25] [31:0] $end
     $var wire 32 [ registers[26] [31:0] $end
     $var wire 32 \ registers[27] [31:0] $end
     $var wire 32 ] registers[28] [31:0] $end
     $var wire 32 ^ registers[29] [31:0] $end
     $var wire 32 C registers[2] [31:0] $end
     $var wire 32 _ registers[30] [31:0] $end
     $var wire 32 ` registers[31] [31:0] $end
     $var wire 32 D registers[3] [31:0] $end
     $var wire 32 E registers[4] [31:0] $end
     $var wire 32 F registers[5] [31:0] $end
     $var wire 32 G registers[6] [31:0] $end
     $var wire 32 H registers[7] [31:0] $end
     $var wire 32 I registers[8] [31:0] $end
     $var wire 32 J registers[9] [31:0] $end
    $upscope $end
   $upscope $end
   $scope module fetch $end
    $var wire 32 k ADDRESS_WIDTH [31:0] $end
    $var wire 32 $ ImmExt [31:0] $end
    $var wire  1 % PCSrc $end
    $var wire  1 g clk $end
    $var wire  1 1 jalr $end
    $var wire 32 # pc [31:0] $end
    $var wire 32 a pc_next [31:0] $end
    $var wire 32 b pc_next_f [31:0] $end
    $var wire 32 2 rs1 [31:0] $end
    $var wire  1 h rst $end
    $scope module jalr_sel $end
     $var wire 32 k DATA_WIDTH [31:0] $end
     $var wire 32 a in0 [31:0] $end
     $var wire 32 c in1 [31:0] $end
     $var wire 32 b out [31:0] $end
     $var wire  1 1 sel $end
    $upscope $end
    $scope module pc_reg $end
     $var wire 32 k ADDRESS_WIDTH [31:0] $end
     $var wire  1 g clk $end
     $var wire 32 # pc [31:0] $end
     $var wire 32 b pc_next [31:0] $end
     $var wire  1 h rst $end
    $upscope $end
    $scope module pc_sel $end
     $var wire 32 k DATA_WIDTH [31:0] $end
     $var wire 32 d in0 [31:0] $end
     $var wire 32 e in1 [31:0] $end
     $var wire 32 a out [31:0] $end
     $var wire  1 % sel $end
    $upscope $end
   $upscope $end
   $scope module inst_mem $end
    $var wire 32 k ADDRESS_WIDTH [31:0] $end
    $var wire 32 n DATA_WIDTH [31:0] $end
    $var wire 32 # addr [31:0] $end
    $var wire 32 & dout [31:0] $end
   $upscope $end
   $scope module memory $end
    $var wire 32 - ALUResult [31:0] $end
    $var wire 32 k DATA_WIDTH [31:0] $end
    $var wire  1 + MemWrite $end
    $var wire 32 f ReadData [31:0] $end
    $var wire 32 / Result [31:0] $end
    $var wire  1 , ResultSrc $end
    $var wire 32 . WriteData [31:0] $end
    $var wire  1 g clk $end
    $var wire  3 5 funct3 [2:0] $end
    $scope module ResultSlc $end
     $var wire 32 k DATA_WIDTH [31:0] $end
     $var wire 32 - in0 [31:0] $end
     $var wire 32 f in1 [31:0] $end
     $var wire 32 / out [31:0] $end
     $var wire  1 , sel $end
    $upscope $end
    $scope module data_mem $end
     $var wire 32 k ADDRESS_WIDTH [31:0] $end
     $var wire 32 k DATA_WIDTH [31:0] $end
     $var wire 32 f ReadData [31:0] $end
     $var wire 32 . WriteData [31:0] $end
     $var wire 32 - addr [31:0] $end
     $var wire  1 g clk $end
     $var wire  3 5 funct3 [2:0] $end
     $var wire  1 + wr_en $end
    $upscope $end
   $upscope $end
  $upscope $end
 $upscope $end
$enddefinitions $end


#0
b00000000000000000000000000000000 #
b00000000000000010000000000000000 $
0%
b00000000000000010000010000110111 &
0'
b000 (
1)
1*
0+
0,
b00000000000000010000000000000000 -
b00000000000000000000000000000000 .
b00000000000000010000000000000000 /
00
01
b00000000000000000000000000000000 2
b100 3
b0110111 4
b000 5
06
07
b00 8
19
b0000000000000001000001000 :
b00010 ;
b00000 <
b01000 =
b00000000000000010000000000000000 >
b00000000000000000000000000000000 ?
b00000000000000010000000000000000 @
b00000000000000000000000000000000 A
b00000000000000000000000000000000 B
b00000000000000000000000000000000 C
b00000000000000000000000000000000 D
b00000000000000000000000000000000 E
b00000000000000000000000000000000 F
b00000000000000000000000000000000 G
b00000000000000000000000000000000 H
b00000000000000000000000000000000 I
b00000000000000000000000000000000 J
b00000000000000000000000000000000 K
b00000000000000000000000000000000 L
b00000000000000000000000000000000 M
b00000000000000000000000000000000 N
b00000000000000000000000000000000 O
b00000000000000000000000000000000 P
b00000000000000000000000000000000 Q
b00000000000000000000000000000000 R
b00000000000000000000000000000000 S
b00000000000000000000000000000000 T
b00000000000000000000000000000000 U
b00000000000000000000000000000000 V
b00000000000000000000000000000000 W
b00000000000000000000000000000000 X
b00000000000000000000000000000000 Y
b00000000000000000000000000000000 Z
b00000000000000000000000000000000 [
b00000000000000000000000000000000 \
b00000000000000000000000000000000 ]
b00000000000000000000000000000000 ^
b00000000000000000000000000000000 _
b00000000000000000000000000000000 `
b00000000000000000000000000000100 a
b00000000000000000000000000000100 b
b00000000000000010000000000000000 c
b00000000000000000000000000000100 d
b00000000000000010000000000000000 e
b00000000000000000000000000000000 f
1g
1h
0i
b00000000000000000000000000000000 j
b00000000000000000000000000100000 k
b00000000000000000000000000000100 l
b00000000000000000000000000000101 m
b00000000000000000000000000001000 n
#1
0g
#2
b00000000000000010000000000000000 I
1g
#3
0g
#4
1g
#5
0g
#6
1g
#7
0g
#8
1g
#9
0g
#10
1g
#11
0g
#12
1g
#13
0g
#14
1g
#15
0g
#16
1g
#17
0g
#18
1g
#19
0g
#20
b00000000000000000000000000000100 #
b00000000000000000000000001100100 $
b00000110010000000000001100010011 &
b00000000000000000000000001100100 -
b00000000000000000000000001100100 /
b001 3
b0010011 4
b10 8
09
b0000011001000000000000110 :
b00000 ;
b00100 <
b00110 =
b00000000000000000000000001100100 >
b00000000000000000000000001100100 @
b00000000000000000000000000001000 a
b00000000000000000000000000001000 b
b00000000000000000000000001100100 c
b00000000000000000000000000001000 d
b00000000000000000000000001101000 e
1g
0h
#21
0g
#22
b00000000000000000000000000001000 #
b00000000000000000000000000000000 $
b00000000011001000000000000100011 &
0)
1+
b00000000000000010000000000000000 -
b00000000000000000000000001100100 .
b00000000000000010000000000000000 /
b00000000000000010000000000000000 2
b010 3
b0100011 4
b00 8
19
b0000000001100100000000000 :
b01000 ;
b00110 <
b00000 =
b00000000000000000000000000000000 >
b00000000000000010000000000000000 ?
b00000000000000000000000000000000 @
b00000000000000000000000001100100 G
b00000000000000000000000000001100 a
b00000000000000000000000000001100 b
b00000000000000010000000000000000 c
b00000000000000000000000000001100 d
b00000000000000000000000000001000 e
1g
#23
0g
#24
b00000000000000000000000000001100 #
b00000000000000000000000011001000 $
b00001100100000000000001110010011 &
1)
0+
b00000000000000000000000011001000 -
b00000000000000010000000000000000 .
b00000000000000000000000011001000 /
b00000000000000000000000000000000 2
b001 3
b0010011 4
b10 8
09
b0000110010000000000000111 :
b00000 ;
b01000 <
b00111 =
b00000000000000000000000011001000 >
b00000000000000000000000000000000 ?
b00000000000000000000000011001000 @
b00000000000000000000000000010000 a
b00000000000000000000000000010000 b
b00000000000000000000000011001000 c
b00000000000000000000000000010000 d
b00000000000000000000000011010100 e
1g
#25
0g
#26
b00000000000000000000000000010000 #
b00000000000000000000000000000001 $
b00000000011101000000000010100011 &
0)
1+
b00000000000000010000000000000001 -
b00000000000000000000000011001000 .
b00000000000000010000000000000001 /
b00000000000000010000000000000000 2
b010 3
b0100011 4
b00 8
19
b0000000001110100000000001 :
b01000 ;
b00111 <
b00001 =
b00000000000000000000000000000001 >
b00000000000000010000000000000000 ?
b00000000000000000000000000000001 @
b00000000000000000000000011001000 H
b00000000000000000000000000010100 a
b00000000000000000000000000010100 b
b00000000000000010000000000000001 c
b00000000000000000000000000010100 d
b00000000000000000000000000010001 e
1g
#27
0g
#28
b00000000000000000000000000010100 #
b00000000000000000000000000000000 $
b00000000000001000100111000000011 &
1)
0+
1,
b00000000000000010000000000000000 -
b00000000000000000000000000000000 .
b00000000000000000000000001100100 /
b001 3
b0000011 4
b100 5
09
b0000000000000100010011100 :
b00000 <
b11100 =
b00000000000000000000000000000000 >
b00000000000000000000000000000000 @
b00000000000000000000000000011000 a
b00000000000000000000000000011000 b
b00000000000000010000000000000000 c
b00000000000000000000000000011000 d
b00000000000000000000000000010100 e
b00000000000000000000000001100100 f
1g
#29
0g
#30
b00000000000000000000000000011000 #
b00000000000000000000000000000001 $
b00000000000101000100111010000011 &
b00000000000000010000000000000001 -
b00000000000000000000000011001000 /
b0000000000010100010011101 :
b00001 <
b11101 =
b00000000000000000000000000000001 >
b00000000000000000000000000000001 @
b00000000000000000000000001100100 ]
b00000000000000000000000000011100 a
b00000000000000000000000000011100 b
b00000000000000010000000000000001 c
b00000000000000000000000000011100 d
b00000000000000000000000000011001 e
b00000000000000000000000011001000 f
1g
#31
0g
#32
b00000000000000000000000000011100 #
b00000000000000000000000000000000 $
b00000001110111100000010100110011 &
0*
0,
b00000000000000000000000100101100 -
b00000000000000000000000011001000 .
b00000000000000000000000100101100 /
b00000000000000000000000001100100 2
b000 3
b0110011 4
b000 5
b10 8
19
b0000000111011110000001010 :
b11100 ;
b11101 <
b01010 =
b00000000000000000000000011001000 >
b00000000000000000000000001100100 ?
b00000000000000000000000011001000 @
b00000000000000000000000011001000 ^
b00000000000000000000000000100000 a
b00000000000000000000000000100000 b
b00000000000000000000000001100100 c
b00000000000000000000000000100000 d
b00000000000000000000000000011100 e
b00000000000000000000000000000000 f
1g
#33
0g
#34
b00000000000000000000000000100000 #
b00000000000000000000000000000100 $
1%
b00000000000001010001001001100011 &
b001 (
0)
b00000000000000000000000000000000 .
b00000000000000000000000100101100 2
b011 3
b1100011 4
b001 5
17
b01 8
b0000000000000101000100100 :
b01010 ;
b00000 <
b00100 =
b00000000000000000000000000000000 >
b00000000000000000000000100101100 ?
b00000000000000000000000000000000 @
b00000000000000000000000100101100 K
b00000000000000000000000000100100 a
b00000000000000000000000000100100 b
b00000000000000000000000100110000 c
b00000000000000000000000000100100 d
b00000000000000000000000000100100 e
1g
b00000000000000000000000100101100 j
#35
0g
#36
b00000000000000000000000000100100 #
b00000000000000000000000000000000 $
b00000000000001010001000001100011 &
b0000000000000101000100000 :
b00000 =
b00000000000000000000000100101100 c
b00000000000000000000000000101000 d
1g
