tb_unit/waveform.vcd
$version Generated by VerilatedVcd $end
$date Tue Nov 26 17:47:51 2024 $end
$timescale 1ps $end

 $scope module TOP $end
  $var wire 32 c a0 [31:0] $end
  $var wire  1 a clk $end
  $var wire  1 b rst $end
  $scope module top $end
   $var wire 32 - ALUResult [31:0] $end
   $var wire  1 * ALUSrc $end
   $var wire  3 ( ALUctrl [2:0] $end
   $var wire 32 d DATA_WIDTH [31:0] $end
   $var wire 32 $ ImmExt [31:0] $end
   $var wire  1 + MemWrite $end
   $var wire  1 % PCSrc $end
   $var wire  1 ) RegWrite $end
   $var wire 32 / Result [31:0] $end
   $var wire  1 , ResultSrc $end
   $var wire 32 . WriteData [31:0] $end
   $var wire 32 c a0 [31:0] $end
   $var wire  1 ' branch_l $end
   $var wire  1 a clk $end
   $var wire 32 & instr [31:0] $end
   $var wire 32 # pc [31:0] $end
   $var wire  1 b rst $end
   $scope module decode $end
    $var wire  1 * ALUSrc $end
    $var wire  3 ( ALUctrl [2:0] $end
    $var wire 32 d DATA_WIDTH [31:0] $end
    $var wire 32 $ ImmExt [31:0] $end
    $var wire  3 0 ImmSrc [2:0] $end
    $var wire  1 + MemWrite $end
    $var wire  1 % PCSrc $end
    $var wire  1 ) RegWrite $end
    $var wire  1 , ResultSrc $end
    $var wire  1 ' branch_l $end
    $var wire 32 & instr [31:0] $end
    $scope module control_unit $end
     $var wire  2 5 ALUOp [1:0] $end
     $var wire  1 * ALUSrc $end
     $var wire  3 ( ALUctrl [2:0] $end
     $var wire  3 0 ImmSrc [2:0] $end
     $var wire  1 + MemWrite $end
     $var wire  1 % PCSrc $end
     $var wire  1 ) RegWrite $end
     $var wire  1 , ResultSrc $end
     $var wire  1 4 branch $end
     $var wire  1 ' branch_l $end
     $var wire  3 2 funct3 [2:0] $end
     $var wire  1 3 funct7_5 $end
     $var wire  7 1 op [6:0] $end
     $scope module alu_decode $end
      $var wire  2 5 ALUOp [1:0] $end
      $var wire  3 ( ALUctrl [2:0] $end
      $var wire  1 6 Op_5 $end
      $var wire  3 2 funct3 [2:0] $end
      $var wire  1 3 funct7_5 $end
     $upscope $end
     $scope module main_decode $end
      $var wire  2 5 ALUOp [1:0] $end
      $var wire  1 * ALUSrc $end
      $var wire  1 4 Branch $end
      $var wire  3 0 ImmSrc [2:0] $end
      $var wire  1 + MemWrite $end
      $var wire  1 ) RegWrite $end
      $var wire  1 , ResultSrc $end
      $var wire  7 1 op [6:0] $end
     $upscope $end
    $upscope $end
    $scope module sign_extend $end
     $var wire 32 d DATA_WIDTH [31:0] $end
     $var wire 25 7 Imm [31:7] $end
     $var wire 32 $ ImmExt [31:0] $end
     $var wire  3 0 ImmSrc [2:0] $end
    $upscope $end
   $upscope $end
   $scope module execute $end
    $var wire 32 - ALUResult [31:0] $end
    $var wire  1 * ALUSrc $end
    $var wire  3 ( ALUctrl [2:0] $end
    $var wire 32 < ALUop2 [31:0] $end
    $var wire 32 d DATA_WIDTH [31:0] $end
    $var wire 32 $ ImmExt [31:0] $end
    $var wire 32 ; RD1 [31:0] $end
    $var wire  1 ) RegWrite $end
    $var wire 32 / Result [31:0] $end
    $var wire 32 . WriteData [31:0] $end
    $var wire 32 c a0 [31:0] $end
    $var wire  1 ' branch_l $end
    $var wire  1 a clk $end
    $var wire  5 : instr_11_7 [11:7] $end
    $var wire  5 8 instr_19_15 [19:15] $end
    $var wire  5 9 instr_24_20 [24:20] $end
    $scope module ALuSrcSel $end
     $var wire 32 d DATA_WIDTH [31:0] $end
     $var wire 32 . in0 [31:0] $end
     $var wire 32 $ in1 [31:0] $end
     $var wire 32 < out [31:0] $end
     $var wire  1 * sel $end
    $upscope $end
    $scope module alu $end
     $var wire  3 ( ALUctrl [2:0] $end
     $var wire 32 ; ALUop1 [31:0] $end
     $var wire 32 < ALUop2 [31:0] $end
     $var wire 32 - ALUout [31:0] $end
     $var wire 32 d DATA_WIDTH [31:0] $end
     $var wire  1 ' branch_l $end
    $upscope $end
    $scope module reg_file $end
     $var wire  5 8 AD1 [4:0] $end
     $var wire  5 9 AD2 [4:0] $end
     $var wire  5 : AD3 [4:0] $end
     $var wire 32 e ADDRESS_WIDTH [31:0] $end
     $var wire 32 d DATA_WIDTH [31:0] $end
     $var wire 32 ; RD1 [31:0] $end
     $var wire 32 . RD2 [31:0] $end
     $var wire 32 / WD3 [31:0] $end
     $var wire  1 ) WE3 $end
     $var wire 32 c a0 [31:0] $end
     $var wire  1 a clk $end
     $var wire 32 = registers[0] [31:0] $end
     $var wire 32 G registers[10] [31:0] $end
     $var wire 32 H registers[11] [31:0] $end
     $var wire 32 I registers[12] [31:0] $end
     $var wire 32 J registers[13] [31:0] $end
     $var wire 32 K registers[14] [31:0] $end
     $var wire 32 L registers[15] [31:0] $end
     $var wire 32 M registers[16] [31:0] $end
     $var wire 32 N registers[17] [31:0] $end
     $var wire 32 O registers[18] [31:0] $end
     $var wire 32 P registers[19] [31:0] $end
     $var wire 32 > registers[1] [31:0] $end
     $var wire 32 Q registers[20] [31:0] $end
     $var wire 32 R registers[21] [31:0] $end
     $var wire 32 S registers[22] [31:0] $end
     $var wire 32 T registers[23] [31:0] $end
     $var wire 32 U registers[24] [31:0] $end
     $var wire 32 V registers[25] [31:0] $end
     $var wire 32 W registers[26] [31:0] $end
     $var wire 32 X registers[27] [31:0] $end
     $var wire 32 Y registers[28] [31:0] $end
     $var wire 32 Z registers[29] [31:0] $end
     $var wire 32 ? registers[2] [31:0] $end
     $var wire 32 [ registers[30] [31:0] $end
     $var wire 32 \ registers[31] [31:0] $end
     $var wire 32 @ registers[3] [31:0] $end
     $var wire 32 A registers[4] [31:0] $end
     $var wire 32 B registers[5] [31:0] $end
     $var wire 32 C registers[6] [31:0] $end
     $var wire 32 D registers[7] [31:0] $end
     $var wire 32 E registers[8] [31:0] $end
     $var wire 32 F registers[9] [31:0] $end
    $upscope $end
   $upscope $end
   $scope module fetch $end
    $var wire 32 d ADDRESS_WIDTH [31:0] $end
    $var wire 32 $ ImmExt [31:0] $end
    $var wire  1 % PCSrc $end
    $var wire  1 a clk $end
    $var wire 32 # pc [31:0] $end
    $var wire 32 ] pc_next [31:0] $end
    $var wire  1 b rst $end
    $scope module pc_reg $end
     $var wire 32 d ADDRESS_WIDTH [31:0] $end
     $var wire  1 a clk $end
     $var wire 32 # pc [31:0] $end
     $var wire 32 ] pc_next [31:0] $end
     $var wire  1 b rst $end
    $upscope $end
    $scope module pc_sel $end
     $var wire 32 d DATA_WIDTH [31:0] $end
     $var wire 32 ^ in0 [31:0] $end
     $var wire 32 _ in1 [31:0] $end
     $var wire 32 ] out [31:0] $end
     $var wire  1 % sel $end
    $upscope $end
   $upscope $end
   $scope module inst_mem $end
    $var wire 32 d ADDRESS_WIDTH [31:0] $end
    $var wire 32 f DATA_WIDTH [31:0] $end
    $var wire 32 # addr [31:0] $end
    $var wire 32 & dout [31:0] $end
   $upscope $end
   $scope module memory $end
    $var wire 32 - ALUResult [31:0] $end
    $var wire 32 d DATA_WIDTH [31:0] $end
    $var wire  1 + MemWrite $end
    $var wire 32 ` ReadData [31:0] $end
    $var wire 32 / Result [31:0] $end
    $var wire  1 , ResultSrc $end
    $var wire 32 . WriteData [31:0] $end
    $var wire  1 a clk $end
    $var wire  3 2 funct3 [2:0] $end
    $scope module ResultSlc $end
     $var wire 32 d DATA_WIDTH [31:0] $end
     $var wire 32 - in0 [31:0] $end
     $var wire 32 ` in1 [31:0] $end
     $var wire 32 / out [31:0] $end
     $var wire  1 , sel $end
    $upscope $end
    $scope module data_mem $end
     $var wire 32 d ADDRESS_WIDTH [31:0] $end
     $var wire 32 d DATA_WIDTH [31:0] $end
     $var wire 32 ` ReadData [31:0] $end
     $var wire 32 . WriteData [31:0] $end
     $var wire 32 - addr [31:0] $end
     $var wire  1 a clk $end
     $var wire  3 2 funct3 [2:0] $end
     $var wire  1 + wr_en $end
    $upscope $end
   $upscope $end
  $upscope $end
 $upscope $end
$enddefinitions $end


#0
b00000000000000000000000000000000 #
b00000000000000000000000011111111 $
0%
b00001111111100000000001100010011 &
0'
b000 (
1)
1*
0+
0,
b00000000000000000000000011111111 -
b00000000000000000000000000000000 .
b00000000000000000000000011111111 /
b001 0
b0010011 1
b000 2
03
04
b10 5
06
b0000111111110000000000110 7
b00000 8
b11111 9
b00110 :
b00000000000000000000000000000000 ;
b00000000000000000000000011111111 <
b00000000000000000000000000000000 =
b00000000000000000000000000000000 >
b00000000000000000000000000000000 ?
b00000000000000000000000000000000 @
b00000000000000000000000000000000 A
b00000000000000000000000000000000 B
b00000000000000000000000000000000 C
b00000000000000000000000000000000 D
b00000000000000000000000000000000 E
b00000000000000000000000000000000 F
b00000000000000000000000000000000 G
b00000000000000000000000000000000 H
b00000000000000000000000000000000 I
b00000000000000000000000000000000 J
b00000000000000000000000000000000 K
b00000000000000000000000000000000 L
b00000000000000000000000000000000 M
b00000000000000000000000000000000 N
b00000000000000000000000000000000 O
b00000000000000000000000000000000 P
b00000000000000000000000000000000 Q
b00000000000000000000000000000000 R
b00000000000000000000000000000000 S
b00000000000000000000000000000000 T
b00000000000000000000000000000000 U
b00000000000000000000000000000000 V
b00000000000000000000000000000000 W
b00000000000000000000000000000000 X
b00000000000000000000000000000000 Y
b00000000000000000000000000000000 Z
b00000000000000000000000000000000 [
b00000000000000000000000000000000 \
b00000000000000000000000000000100 ]
b00000000000000000000000000000100 ^
b00000000000000000000000011111111 _
b11111111111111111111111111111101 `
1a
0b
b00000000000000000000000000000000 c
b00000000000000000000000000100000 d
b00000000000000000000000000000101 e
b00000000000000000000000000001000 f
#1
0a
#2
b00000000000000000000000000000100 #
b00000000000000000000000000000000 $
b00000000000000000000010100010011 &
b00000000000000000000000000000000 -
b00000000000000000000000000000000 /
b0000000000000000000001010 7
b00000 9
b01010 :
b00000000000000000000000000000000 <
b00000000000000000000000011111111 C
b00000000000000000000000000001000 ]
b00000000000000000000000000001000 ^
b00000000000000000000000000000100 _
b11111111111111111111111111111110 `
1a
#3
0a
#4
b00000000000000000000000000001000 #
b00000000000000000000010110010011 &
b0000000000000000000001011 7
b01011 :
b00000000000000000000000000001100 ]
b00000000000000000000000000001100 ^
b00000000000000000000000000001000 _
1a
#5
0a
#6
b00000000000000000000000000001100 #
b00000000000001011000010100010011 &
b0000000000000101100001010 7
b01011 8
b01010 :
b00000000000000000000000000010000 ]
b00000000000000000000000000010000 ^
b00000000000000000000000000001100 _
1a
#7
0a
#8
b00000000000000000000000000010000 #
b00000000000000000000000000000001 $
b00000000000101011000010110010011 &
b00000000000000000000000000000001 -
b00000000000000000000000000000001 /
b0000000000010101100001011 7
b00001 9
b01011 :
b00000000000000000000000000000001 <
b00000000000000000000000000010100 ]
b00000000000000000000000000010100 ^
b00000000000000000000000000010001 _
b11111111111111111111111111111101 `
1a
#9
0a
#10
b00000000000000000000000000010100 #
b11111111111111111111111111111000 $
1%
b11111110011001011001110011100011 &
b001 (
0)
0*
b11111111111111111111111100000010 -
b00000000000000000000000011111111 .
b11111111111111111111111100000010 /
b011 0
b1100011 1
b001 2
13
14
b01 5
16
b1111111001100101100111001 7
b00110 9
b11001 :
b00000000000000000000000000000001 ;
b00000000000000000000000011111111 <
b00000000000000000000000000000001 H
b00000000000000000000000000001100 ]
b00000000000000000000000000011000 ^
b00000000000000000000000000001100 _
b00000000000000000000000000000000 `
1a
#11
0a
#12
b00000000000000000000000000001100 #
b00000000000000000000000000000000 $
0%
b00000000000001011000010100010011 &
b000 (
1)
1*
b00000000000000000000000000000001 -
b00000000000000000000000000000000 .
b00000000000000000000000000000001 /
b001 0
b0010011 1
b000 2
03
04
b10 5
06
b0000000000000101100001010 7
b00000 9
b01010 :
b00000000000000000000000000000000 <
b00000000000000000000000000010000 ]
b00000000000000000000000000010000 ^
b11111111111111111111111111111101 `
1a
#13
0a
#14
b00000000000000000000000000010000 #
b00000000000000000000000000000001 $
b00000000000101011000010110010011 &
b00000000000000000000000000000010 -
b00000000000000000000000000000010 /
b0000000000010101100001011 7
b00001 9
b01011 :
b00000000000000000000000000000001 <
b00000000000000000000000000000001 G
b00000000000000000000000000010100 ]
b00000000000000000000000000010100 ^
b00000000000000000000000000010001 _
1a
b00000000000000000000000000000001 c
#15
0a
#16
b00000000000000000000000000010100 #
b11111111111111111111111111111000 $
1%
b11111110011001011001110011100011 &
b001 (
0)
0*
b11111111111111111111111100000011 -
b00000000000000000000000011111111 .
b11111111111111111111111100000011 /
b011 0
b1100011 1
b001 2
13
14
b01 5
16
b1111111001100101100111001 7
b00110 9
b11001 :
b00000000000000000000000000000010 ;
b00000000000000000000000011111111 <
b00000000000000000000000000000010 H
b00000000000000000000000000001100 ]
b00000000000000000000000000011000 ^
b00000000000000000000000000001100 _
b00000000000000000000000000000000 `
1a
#17
0a
#18
b00000000000000000000000000001100 #
b00000000000000000000000000000000 $
0%
b00000000000001011000010100010011 &
b000 (
1)
1*
b00000000000000000000000000000010 -
b00000000000000000000000000000000 .
b00000000000000000000000000000010 /
b001 0
b0010011 1
b000 2
03
04
b10 5
06
b0000000000000101100001010 7
b00000 9
b01010 :
b00000000000000000000000000000000 <
b00000000000000000000000000010000 ]
b00000000000000000000000000010000 ^
b11111111111111111111111111111101 `
1a
#19
0a
#20
b00000000000000000000000000010000 #
b00000000000000000000000000000001 $
b00000000000101011000010110010011 &
b00000000000000000000000000000011 -
b00000000000000000000000000000011 /
b0000000000010101100001011 7
b00001 9
b01011 :
b00000000000000000000000000000001 <
b00000000000000000000000000000010 G
b00000000000000000000000000010100 ]
b00000000000000000000000000010100 ^
b00000000000000000000000000010001 _
1a
b00000000000000000000000000000010 c
#21
0a
#22
b00000000000000000000000000010100 #
b11111111111111111111111111111000 $
1%
b11111110011001011001110011100011 &
b001 (
0)
0*
b11111111111111111111111100000100 -
b00000000000000000000000011111111 .
b11111111111111111111111100000100 /
b011 0
b1100011 1
b001 2
13
14
b01 5
16
b1111111001100101100111001 7
b00110 9
b11001 :
b00000000000000000000000000000011 ;
b00000000000000000000000011111111 <
b00000000000000000000000000000011 H
b00000000000000000000000000001100 ]
b00000000000000000000000000011000 ^
b00000000000000000000000000001100 _
b00000000000000000000000000000000 `
1a
#23
0a
#24
b00000000000000000000000000001100 #
b00000000000000000000000000000000 $
0%
b00000000000001011000010100010011 &
b000 (
1)
1*
b00000000000000000000000000000011 -
b00000000000000000000000000000000 .
b00000000000000000000000000000011 /
b001 0
b0010011 1
b000 2
03
04
b10 5
06
b0000000000000101100001010 7
b00000 9
b01010 :
b00000000000000000000000000000000 <
b00000000000000000000000000010000 ]
b00000000000000000000000000010000 ^
b11111111111111111111111111111101 `
1a
#25
0a
#26
b00000000000000000000000000010000 #
b00000000000000000000000000000001 $
b00000000000101011000010110010011 &
b00000000000000000000000000000100 -
b00000000000000000000000000000100 /
b0000000000010101100001011 7
b00001 9
b01011 :
b00000000000000000000000000000001 <
b00000000000000000000000000000011 G
b00000000000000000000000000010100 ]
b00000000000000000000000000010100 ^
b00000000000000000000000000010001 _
1a
b00000000000000000000000000000011 c
#27
0a
#28
b00000000000000000000000000010100 #
b11111111111111111111111111111000 $
1%
b11111110011001011001110011100011 &
b001 (
0)
0*
b11111111111111111111111100000101 -
b00000000000000000000000011111111 .
b11111111111111111111111100000101 /
b011 0
b1100011 1
b001 2
13
14
b01 5
16
b1111111001100101100111001 7
b00110 9
b11001 :
b00000000000000000000000000000100 ;
b00000000000000000000000011111111 <
b00000000000000000000000000000100 H
b00000000000000000000000000001100 ]
b00000000000000000000000000011000 ^
b00000000000000000000000000001100 _
b00000000000000000000000000000000 `
1a
#29
0a
#30
b00000000000000000000000000001100 #
b00000000000000000000000000000000 $
0%
b00000000000001011000010100010011 &
b000 (
1)
1*
b00000000000000000000000000000100 -
b00000000000000000000000000000000 .
b00000000000000000000000000000100 /
b001 0
b0010011 1
b000 2
03
04
b10 5
06
b0000000000000101100001010 7
b00000 9
b01010 :
b00000000000000000000000000000000 <
b00000000000000000000000000010000 ]
b00000000000000000000000000010000 ^
b11111111111111111111111111111101 `
1a
#31
0a
#32
b00000000000000000000000000010000 #
b00000000000000000000000000000001 $
b00000000000101011000010110010011 &
b00000000000000000000000000000101 -
b00000000000000000000000000000101 /
b0000000000010101100001011 7
b00001 9
b01011 :
b00000000000000000000000000000001 <
b00000000000000000000000000000100 G
b00000000000000000000000000010100 ]
b00000000000000000000000000010100 ^
b00000000000000000000000000010001 _
1a
b00000000000000000000000000000100 c
#33
0a
#34
b00000000000000000000000000010100 #
b11111111111111111111111111111000 $
1%
b11111110011001011001110011100011 &
b001 (
0)
0*
b11111111111111111111111100000110 -
b00000000000000000000000011111111 .
b11111111111111111111111100000110 /
b011 0
b1100011 1
b001 2
13
14
b01 5
16
b1111111001100101100111001 7
b00110 9
b11001 :
b00000000000000000000000000000101 ;
b00000000000000000000000011111111 <
b00000000000000000000000000000101 H
b00000000000000000000000000001100 ]
b00000000000000000000000000011000 ^
b00000000000000000000000000001100 _
b00000000000000000000000000000000 `
1a
#35
0a
#36
b00000000000000000000000000001100 #
b00000000000000000000000000000000 $
0%
b00000000000001011000010100010011 &
b000 (
1)
1*
b00000000000000000000000000000101 -
b00000000000000000000000000000000 .
b00000000000000000000000000000101 /
b001 0
b0010011 1
b000 2
03
04
b10 5
06
b0000000000000101100001010 7
b00000 9
b01010 :
b00000000000000000000000000000000 <
b00000000000000000000000000010000 ]
b00000000000000000000000000010000 ^
b11111111111111111111111111111101 `
1a
#37
0a
#38
b00000000000000000000000000010000 #
b00000000000000000000000000000001 $
b00000000000101011000010110010011 &
b00000000000000000000000000000110 -
b00000000000000000000000000000110 /
b0000000000010101100001011 7
b00001 9
b01011 :
b00000000000000000000000000000001 <
b00000000000000000000000000000101 G
b00000000000000000000000000010100 ]
b00000000000000000000000000010100 ^
b00000000000000000000000000010001 _
b11111111111111111111111111111100 `
1a
b00000000000000000000000000000101 c
#39
0a
#40
b00000000000000000000000000010100 #
b11111111111111111111111111111000 $
1%
b11111110011001011001110011100011 &
b001 (
0)
0*
b11111111111111111111111100000111 -
b00000000000000000000000011111111 .
b11111111111111111111111100000111 /
b011 0
b1100011 1
b001 2
13
14
b01 5
16
b1111111001100101100111001 7
b00110 9
b11001 :
b00000000000000000000000000000110 ;
b00000000000000000000000011111111 <
b00000000000000000000000000000110 H
b00000000000000000000000000001100 ]
b00000000000000000000000000011000 ^
b00000000000000000000000000001100 _
b00000000000000000000000000000000 `
1a
#41
0a
#42
b00000000000000000000000000001100 #
b00000000000000000000000000000000 $
0%
b00000000000001011000010100010011 &
b000 (
1)
1*
b00000000000000000000000000000110 -
b00000000000000000000000000000000 .
b00000000000000000000000000000110 /
b001 0
b0010011 1
b000 2
03
04
b10 5
06
b0000000000000101100001010 7
b00000 9
b01010 :
b00000000000000000000000000000000 <
b00000000000000000000000000010000 ]
b00000000000000000000000000010000 ^
b11111111111111111111111111111100 `
1a
#43
0a
#44
b00000000000000000000000000010000 #
b00000000000000000000000000000001 $
b00000000000101011000010110010011 &
b00000000000000000000000000000111 -
b00000000000000000000000000000111 /
b0000000000010101100001011 7
b00001 9
b01011 :
b00000000000000000000000000000001 <
b00000000000000000000000000000110 G
b00000000000000000000000000010100 ]
b00000000000000000000000000010100 ^
b00000000000000000000000000010001 _
1a
b00000000000000000000000000000110 c
#45
0a
#46
b00000000000000000000000000010100 #
b11111111111111111111111111111000 $
1%
b11111110011001011001110011100011 &
b001 (
0)
0*
b11111111111111111111111100001000 -
b00000000000000000000000011111111 .
b11111111111111111111111100001000 /
b011 0
b1100011 1
b001 2
13
14
b01 5
16
b1111111001100101100111001 7
b00110 9
b11001 :
b00000000000000000000000000000111 ;
b00000000000000000000000011111111 <
b00000000000000000000000000000111 H
b00000000000000000000000000001100 ]
b00000000000000000000000000011000 ^
b00000000000000000000000000001100 _
b00000000000000000000000000000000 `
1a
#47
0a
#48
b00000000000000000000000000001100 #
b00000000000000000000000000000000 $
0%
b00000000000001011000010100010011 &
b000 (
1)
1*
b00000000000000000000000000000111 -
b00000000000000000000000000000000 .
b00000000000000000000000000000111 /
b001 0
b0010011 1
b000 2
03
04
b10 5
06
b0000000000000101100001010 7
b00000 9
b01010 :
b00000000000000000000000000000000 <
b00000000000000000000000000010000 ]
b00000000000000000000000000010000 ^
b11111111111111111111111111111100 `
1a
#49
0a
#50
b00000000000000000000000000010000 #
b00000000000000000000000000000001 $
b00000000000101011000010110010011 &
b00000000000000000000000000001000 -
b00000000000000000000000000001000 /
b0000000000010101100001011 7
b00001 9
b01011 :
b00000000000000000000000000000001 <
b00000000000000000000000000000111 G
b00000000000000000000000000010100 ]
b00000000000000000000000000010100 ^
b00000000000000000000000000010001 _
b11111111111111111111111111111011 `
1a
b00000000000000000000000000000111 c
#51
0a
#52
b00000000000000000000000000010100 #
b11111111111111111111111111111000 $
1%
b11111110011001011001110011100011 &
b001 (
0)
0*
b11111111111111111111111100001001 -
b00000000000000000000000011111111 .
b11111111111111111111111100001001 /
b011 0
b1100011 1
b001 2
13
14
b01 5
16
b1111111001100101100111001 7
b00110 9
b11001 :
b00000000000000000000000000001000 ;
b00000000000000000000000011111111 <
b00000000000000000000000000001000 H
b00000000000000000000000000001100 ]
b00000000000000000000000000011000 ^
b00000000000000000000000000001100 _
b00000000000000000000000000000000 `
1a
#53
0a
#54
b00000000000000000000000000001100 #
b00000000000000000000000000000000 $
0%
b00000000000001011000010100010011 &
b000 (
1)
1*
b00000000000000000000000000001000 -
b00000000000000000000000000000000 .
b00000000000000000000000000001000 /
b001 0
b0010011 1
b000 2
03
04
b10 5
06
b0000000000000101100001010 7
b00000 9
b01010 :
b00000000000000000000000000000000 <
b00000000000000000000000000010000 ]
b00000000000000000000000000010000 ^
b11111111111111111111111111111011 `
1a
#55
0a
#56
b00000000000000000000000000010000 #
b00000000000000000000000000000001 $
b00000000000101011000010110010011 &
b00000000000000000000000000001001 -
b00000000000000000000000000001001 /
b0000000000010101100001011 7
b00001 9
b01011 :
b00000000000000000000000000000001 <
b00000000000000000000000000001000 G
b00000000000000000000000000010100 ]
b00000000000000000000000000010100 ^
b00000000000000000000000000010001 _
b11111111111111111111111111111010 `
1a
b00000000000000000000000000001000 c
#57
0a
#58
b00000000000000000000000000010100 #
b11111111111111111111111111111000 $
1%
b11111110011001011001110011100011 &
b001 (
0)
0*
b11111111111111111111111100001010 -
b00000000000000000000000011111111 .
b11111111111111111111111100001010 /
b011 0
b1100011 1
b001 2
13
14
b01 5
16
b1111111001100101100111001 7
b00110 9
b11001 :
b00000000000000000000000000001001 ;
b00000000000000000000000011111111 <
b00000000000000000000000000001001 H
b00000000000000000000000000001100 ]
b00000000000000000000000000011000 ^
b00000000000000000000000000001100 _
b00000000000000000000000000000000 `
1a
#59
0a
#60
b00000000000000000000000000001100 #
b00000000000000000000000000000000 $
0%
b00000000000001011000010100010011 &
b000 (
1)
1*
b00000000000000000000000000001001 -
b00000000000000000000000000000000 .
b00000000000000000000000000001001 /
b001 0
b0010011 1
b000 2
03
04
b10 5
06
b0000000000000101100001010 7
b00000 9
b01010 :
b00000000000000000000000000000000 <
b00000000000000000000000000010000 ]
b00000000000000000000000000010000 ^
b11111111111111111111111111111010 `
1a
#61
0a
#62
b00000000000000000000000000010000 #
b00000000000000000000000000000001 $
b00000000000101011000010110010011 &
b00000000000000000000000000001010 -
b00000000000000000000000000001010 /
b0000000000010101100001011 7
b00001 9
b01011 :
b00000000000000000000000000000001 <
b00000000000000000000000000001001 G
b00000000000000000000000000010100 ]
b00000000000000000000000000010100 ^
b00000000000000000000000000010001 _
1a
b00000000000000000000000000001001 c
#63
0a
#64
b00000000000000000000000000010100 #
b11111111111111111111111111111000 $
1%
b11111110011001011001110011100011 &
b001 (
0)
0*
b11111111111111111111111100001011 -
b00000000000000000000000011111111 .
b11111111111111111111111100001011 /
b011 0
b1100011 1
b001 2
13
14
b01 5
16
b1111111001100101100111001 7
b00110 9
b11001 :
b00000000000000000000000000001010 ;
b00000000000000000000000011111111 <
b00000000000000000000000000001010 H
b00000000000000000000000000001100 ]
b00000000000000000000000000011000 ^
b00000000000000000000000000001100 _
b00000000000000000000000000000000 `
1a
#65
0a
#66
b00000000000000000000000000001100 #
b00000000000000000000000000000000 $
0%
b00000000000001011000010100010011 &
b000 (
1)
1*
b00000000000000000000000000001010 -
b00000000000000000000000000000000 .
b00000000000000000000000000001010 /
b001 0
b0010011 1
b000 2
03
04
b10 5
06
b0000000000000101100001010 7
b00000 9
b01010 :
b00000000000000000000000000000000 <
b00000000000000000000000000010000 ]
b00000000000000000000000000010000 ^
b11111111111111111111111111111010 `
1a
#67
0a
#68
b00000000000000000000000000010000 #
b00000000000000000000000000000001 $
b00000000000101011000010110010011 &
b00000000000000000000000000001011 -
b00000000000000000000000000001011 /
b0000000000010101100001011 7
b00001 9
b01011 :
b00000000000000000000000000000001 <
b00000000000000000000000000001010 G
b00000000000000000000000000010100 ]
b00000000000000000000000000010100 ^
b00000000000000000000000000010001 _
b11111111111111111111111111111001 `
1a
b00000000000000000000000000001010 c
#69
0a
#70
b00000000000000000000000000010100 #
b11111111111111111111111111111000 $
1%
b11111110011001011001110011100011 &
b001 (
0)
0*
b11111111111111111111111100001100 -
b00000000000000000000000011111111 .
b11111111111111111111111100001100 /
b011 0
b1100011 1
b001 2
13
14
b01 5
16
b1111111001100101100111001 7
b00110 9
b11001 :
b00000000000000000000000000001011 ;
b00000000000000000000000011111111 <
b00000000000000000000000000001011 H
b00000000000000000000000000001100 ]
b00000000000000000000000000011000 ^
b00000000000000000000000000001100 _
b00000000000000000000000000000000 `
1a
#71
0a
#72
b00000000000000000000000000001100 #
b00000000000000000000000000000000 $
0%
b00000000000001011000010100010011 &
b000 (
1)
1*
b00000000000000000000000000001011 -
b00000000000000000000000000000000 .
b00000000000000000000000000001011 /
b001 0
b0010011 1
b000 2
03
04
b10 5
06
b0000000000000101100001010 7
b00000 9
b01010 :
b00000000000000000000000000000000 <
b00000000000000000000000000010000 ]
b00000000000000000000000000010000 ^
b11111111111111111111111111111001 `
1a
#73
0a
#74
b00000000000000000000000000010000 #
b00000000000000000000000000000001 $
b00000000000101011000010110010011 &
b00000000000000000000000000001100 -
b00000000000000000000000000001100 /
b0000000000010101100001011 7
b00001 9
b01011 :
b00000000000000000000000000000001 <
b00000000000000000000000000001011 G
b00000000000000000000000000010100 ]
b00000000000000000000000000010100 ^
b00000000000000000000000000010001 _
b11111111111111111111111111111000 `
1a
b00000000000000000000000000001011 c
#75
0a
#76
b00000000000000000000000000010100 #
b11111111111111111111111111111000 $
1%
b11111110011001011001110011100011 &
b001 (
0)
0*
b11111111111111111111111100001101 -
b00000000000000000000000011111111 .
b11111111111111111111111100001101 /
b011 0
b1100011 1
b001 2
13
14
b01 5
16
b1111111001100101100111001 7
b00110 9
b11001 :
b00000000000000000000000000001100 ;
b00000000000000000000000011111111 <
b00000000000000000000000000001100 H
b00000000000000000000000000001100 ]
b00000000000000000000000000011000 ^
b00000000000000000000000000001100 _
b00000000000000000000000000000000 `
1a
#77
0a
#78
b00000000000000000000000000001100 #
b00000000000000000000000000000000 $
0%
b00000000000001011000010100010011 &
b000 (
1)
1*
b00000000000000000000000000001100 -
b00000000000000000000000000000000 .
b00000000000000000000000000001100 /
b001 0
b0010011 1
b000 2
03
04
b10 5
06
b0000000000000101100001010 7
b00000 9
b01010 :
b00000000000000000000000000000000 <
b00000000000000000000000000010000 ]
b00000000000000000000000000010000 ^
b11111111111111111111111111111000 `
1a
#79
0a
#80
b00000000000000000000000000010000 #
b00000000000000000000000000000001 $
b00000000000101011000010110010011 &
b00000000000000000000000000001101 -
b00000000000000000000000000001101 /
b0000000000010101100001011 7
b00001 9
b01011 :
b00000000000000000000000000000001 <
b00000000000000000000000000001100 G
b00000000000000000000000000010100 ]
b00000000000000000000000000010100 ^
b00000000000000000000000000010001 _
b11111111111111111111111111110111 `
1a
b00000000000000000000000000001100 c
#81
0a
#82
b00000000000000000000000000010100 #
b11111111111111111111111111111000 $
1%
b11111110011001011001110011100011 &
b001 (
0)
0*
b11111111111111111111111100001110 -
b00000000000000000000000011111111 .
b11111111111111111111111100001110 /
b011 0
b1100011 1
b001 2
13
14
b01 5
16
b1111111001100101100111001 7
b00110 9
b11001 :
b00000000000000000000000000001101 ;
b00000000000000000000000011111111 <
b00000000000000000000000000001101 H
b00000000000000000000000000001100 ]
b00000000000000000000000000011000 ^
b00000000000000000000000000001100 _
b00000000000000000000000000000000 `
1a
#83
0a
#84
b00000000000000000000000000001100 #
b00000000000000000000000000000000 $
0%
b00000000000001011000010100010011 &
b000 (
1)
1*
b00000000000000000000000000001101 -
b00000000000000000000000000000000 .
b00000000000000000000000000001101 /
b001 0
b0010011 1
b000 2
03
04
b10 5
06
b0000000000000101100001010 7
b00000 9
b01010 :
b00000000000000000000000000000000 <
b00000000000000000000000000010000 ]
b00000000000000000000000000010000 ^
b11111111111111111111111111110111 `
1a
#85
0a
#86
b00000000000000000000000000010000 #
b00000000000000000000000000000001 $
b00000000000101011000010110010011 &
b00000000000000000000000000001110 -
b00000000000000000000000000001110 /
b0000000000010101100001011 7
b00001 9
b01011 :
b00000000000000000000000000000001 <
b00000000000000000000000000001101 G
b00000000000000000000000000010100 ]
b00000000000000000000000000010100 ^
b00000000000000000000000000010001 _
b11111111111111111111111111110110 `
1a
b00000000000000000000000000001101 c
#87
0a
