tb/waveform.vcd
$version Generated by VerilatedVcd $end
$date Fri Nov 22 14:03:57 2024 $end
$timescale 1ps $end

 $scope module TOP $end
  $var wire 32 e a0 [31:0] $end
  $var wire  1 c clk $end
  $var wire  1 d rst $end
  $scope module top $end
   $var wire 32 - ALUResult [31:0] $end
   $var wire  1 * ALUSrc $end
   $var wire  3 ( ALUctrl [2:0] $end
   $var wire 32 f DATA_WIDTH [31:0] $end
   $var wire  1 ' EQ $end
   $var wire 32 $ ImmExt [31:0] $end
   $var wire  1 + MemWrite $end
   $var wire  1 % PCSrc $end
   $var wire  1 ) RegWrite $end
   $var wire 32 / Result [31:0] $end
   $var wire  1 , ResultSrc $end
   $var wire 32 . WriteData [31:0] $end
   $var wire 32 e a0 [31:0] $end
   $var wire  1 c clk $end
   $var wire 32 & instr [31:0] $end
   $var wire 32 # pc [31:0] $end
   $var wire  1 d rst $end
   $scope module decode $end
    $var wire  1 * ALUSrc $end
    $var wire  3 ( ALUctrl [2:0] $end
    $var wire 32 f DATA_WIDTH [31:0] $end
    $var wire  1 ' EQ $end
    $var wire 32 $ ImmExt [31:0] $end
    $var wire  2 0 ImmSrc [1:0] $end
    $var wire  1 + MemWrite $end
    $var wire  1 % PCSrc $end
    $var wire  1 ) RegWrite $end
    $var wire  1 , ResultSrc $end
    $var wire 32 & instr [31:0] $end
    $var wire  5 1 unused_bits [19:15] $end
    $scope module control_unit $end
     $var wire  2 6 ALUOp [1:0] $end
     $var wire  1 * ALUSrc $end
     $var wire  3 ( ALUctrl [2:0] $end
     $var wire  1 ' EQ $end
     $var wire  2 0 ImmSrc [1:0] $end
     $var wire  1 + MemWrite $end
     $var wire  1 % PCSrc $end
     $var wire  1 ) RegWrite $end
     $var wire  1 , ResultSrc $end
     $var wire  1 5 branch $end
     $var wire  3 3 funct3 [2:0] $end
     $var wire  1 4 funct7_5 $end
     $var wire  7 2 op [6:0] $end
     $scope module alu_decode $end
      $var wire  2 6 ALUOp [1:0] $end
      $var wire  3 ( ALUctrl [2:0] $end
      $var wire  1 7 Op_5 $end
      $var wire  3 3 funct3 [2:0] $end
      $var wire  1 4 funct7_5 $end
     $upscope $end
     $scope module main_decode $end
      $var wire  2 6 ALUOp [1:0] $end
      $var wire  1 * ALUSrc $end
      $var wire  1 5 Branch $end
      $var wire  2 0 ImmSrc [1:0] $end
      $var wire  1 + MemWrite $end
      $var wire  1 ) RegWrite $end
      $var wire  1 , ResultSrc $end
      $var wire  7 2 op [6:0] $end
     $upscope $end
    $upscope $end
    $scope module sign_extend $end
     $var wire 32 f DATA_WIDTH [31:0] $end
     $var wire 32 $ ImmExt [31:0] $end
     $var wire  2 0 ImmSrc [1:0] $end
     $var wire  5 9 Imm_down [11:7] $end
     $var wire 12 8 Imm_up [31:20] $end
    $upscope $end
   $upscope $end
   $scope module execute $end
    $var wire 32 - ALUResult [31:0] $end
    $var wire  1 * ALUSrc $end
    $var wire  3 ( ALUctrl [2:0] $end
    $var wire 32 < ALUop2 [31:0] $end
    $var wire 32 f DATA_WIDTH [31:0] $end
    $var wire  1 ' EQ $end
    $var wire 32 $ ImmExt [31:0] $end
    $var wire 32 ; RD1 [31:0] $end
    $var wire  1 ) RegWrite $end
    $var wire 32 / Result [31:0] $end
    $var wire 32 . WriteData [31:0] $end
    $var wire 32 e a0 [31:0] $end
    $var wire  1 c clk $end
    $var wire  5 9 instr_11_7 [11:7] $end
    $var wire  5 1 instr_19_15 [19:15] $end
    $var wire  5 : instr_24_20 [24:20] $end
    $scope module ALuSrcSel $end
     $var wire 32 f DATA_WIDTH [31:0] $end
     $var wire 32 . in0 [31:0] $end
     $var wire 32 $ in1 [31:0] $end
     $var wire 32 < out [31:0] $end
     $var wire  1 * sel $end
    $upscope $end
    $scope module alu $end
     $var wire  3 ( ALUctrl [2:0] $end
     $var wire 32 ; ALUop1 [31:0] $end
     $var wire 32 < ALUop2 [31:0] $end
     $var wire 32 - ALUout [31:0] $end
     $var wire 32 f DATA_WIDTH [31:0] $end
     $var wire  1 ' EQ $end
    $upscope $end
    $scope module reg_file $end
     $var wire  5 1 AD1 [4:0] $end
     $var wire  5 : AD2 [4:0] $end
     $var wire  5 9 AD3 [4:0] $end
     $var wire 32 g ADDRESS_WIDTH [31:0] $end
     $var wire 32 f DATA_WIDTH [31:0] $end
     $var wire 32 ; RD1 [31:0] $end
     $var wire 32 . RD2 [31:0] $end
     $var wire 32 / WD3 [31:0] $end
     $var wire  1 ) WE3 $end
     $var wire 32 e a0 [31:0] $end
     $var wire  1 c clk $end
     $var wire 32 = registers[0] [31:0] $end
     $var wire 32 G registers[10] [31:0] $end
     $var wire 32 H registers[11] [31:0] $end
     $var wire 32 I registers[12] [31:0] $end
     $var wire 32 J registers[13] [31:0] $end
     $var wire 32 K registers[14] [31:0] $end
     $var wire 32 L registers[15] [31:0] $end
     $var wire 32 M registers[16] [31:0] $end
     $var wire 32 N registers[17] [31:0] $end
     $var wire 32 O registers[18] [31:0] $end
     $var wire 32 P registers[19] [31:0] $end
     $var wire 32 > registers[1] [31:0] $end
     $var wire 32 Q registers[20] [31:0] $end
     $var wire 32 R registers[21] [31:0] $end
     $var wire 32 S registers[22] [31:0] $end
     $var wire 32 T registers[23] [31:0] $end
     $var wire 32 U registers[24] [31:0] $end
     $var wire 32 V registers[25] [31:0] $end
     $var wire 32 W registers[26] [31:0] $end
     $var wire 32 X registers[27] [31:0] $end
     $var wire 32 Y registers[28] [31:0] $end
     $var wire 32 Z registers[29] [31:0] $end
     $var wire 32 ? registers[2] [31:0] $end
     $var wire 32 [ registers[30] [31:0] $end
     $var wire 32 \ registers[31] [31:0] $end
     $var wire 32 @ registers[3] [31:0] $end
     $var wire 32 A registers[4] [31:0] $end
     $var wire 32 B registers[5] [31:0] $end
     $var wire 32 C registers[6] [31:0] $end
     $var wire 32 D registers[7] [31:0] $end
     $var wire 32 E registers[8] [31:0] $end
     $var wire 32 F registers[9] [31:0] $end
    $upscope $end
   $upscope $end
   $scope module fetch $end
    $var wire 32 f ADDRESS_WIDTH [31:0] $end
    $var wire 32 $ ImmExt [31:0] $end
    $var wire  1 % PCSrc $end
    $var wire  1 c clk $end
    $var wire 32 # pc [31:0] $end
    $var wire 32 ] pc_next [31:0] $end
    $var wire  1 d rst $end
    $scope module pc_reg $end
     $var wire 32 f ADDRESS_WIDTH [31:0] $end
     $var wire  1 c clk $end
     $var wire 32 # pc [31:0] $end
     $var wire 32 ] pc_next [31:0] $end
     $var wire  1 d rst $end
    $upscope $end
    $scope module pc_sel $end
     $var wire 32 f DATA_WIDTH [31:0] $end
     $var wire 32 ^ in0 [31:0] $end
     $var wire 32 _ in1 [31:0] $end
     $var wire 32 ] out [31:0] $end
     $var wire  1 % sel $end
    $upscope $end
   $upscope $end
   $scope module inst_mem $end
    $var wire 32 f ADDRESS_WIDTH [31:0] $end
    $var wire 32 h DATA_WIDTH [31:0] $end
    $var wire 32 # addr [31:0] $end
    $var wire 32 & dout [31:0] $end
   $upscope $end
   $scope module memory $end
    $var wire 32 - ALUResult [31:0] $end
    $var wire 32 f DATA_WIDTH [31:0] $end
    $var wire  1 + MemWrite $end
    $var wire 32 ` ReadData [31:0] $end
    $var wire 32 / Result [31:0] $end
    $var wire  1 , ResultSrc $end
    $var wire 32 . WriteData [31:0] $end
    $var wire  1 c clk $end
    $scope module ResultSlc $end
     $var wire 32 f DATA_WIDTH [31:0] $end
     $var wire 32 - in0 [31:0] $end
     $var wire 32 ` in1 [31:0] $end
     $var wire 32 / out [31:0] $end
     $var wire  1 , sel $end
    $upscope $end
    $scope module data_mem $end
     $var wire 32 f ADDRESS_WIDTH [31:0] $end
     $var wire 32 f DATA_WIDTH [31:0] $end
     $var wire 32 ` ReadData [31:0] $end
     $var wire 32 . WriteData [31:0] $end
     $var wire 32 - addr [31:0] $end
     $var wire  1 c clk $end
     $var wire 32 a ram_array[-1] [31:0] $end
     $var wire 32 b ram_array[0] [31:0] $end
     $var wire  1 + wr_en $end
    $upscope $end
   $upscope $end
  $upscope $end
 $upscope $end
$enddefinitions $end


#0
b00000000000000000000000000000000 #
b00000000000000000000000011111111 $
0%
b00001111111100000000001100010011 &
0'
b000 (
1)
1*
0+
0,
b00000000000000000000000011111111 -
b00000000000000000000000000000000 .
b00000000000000000000000011111111 /
b00 0
b00000 1
b0010011 2
b000 3
04
05
b10 6
07
b000011111111 8
b00110 9
b11111 :
b00000000000000000000000000000000 ;
b00000000000000000000000011111111 <
b00000000000000000000000000000000 =
b00000000000000000000000000000000 >
b00000000000000000000000000000000 ?
b00000000000000000000000000000000 @
b00000000000000000000000000000000 A
b00000000000000000000000000000000 B
b00000000000000000000000000000000 C
b00000000000000000000000000000000 D
b00000000000000000000000000000000 E
b00000000000000000000000000000000 F
b00000000000000000000000000000000 G
b00000000000000000000000000000000 H
b00000000000000000000000000000000 I
b00000000000000000000000000000000 J
b00000000000000000000000000000000 K
b00000000000000000000000000000000 L
b00000000000000000000000000000000 M
b00000000000000000000000000000000 N
b00000000000000000000000000000000 O
b00000000000000000000000000000000 P
b00000000000000000000000000000000 Q
b00000000000000000000000000000000 R
b00000000000000000000000000000000 S
b00000000000000000000000000000000 T
b00000000000000000000000000000000 U
b00000000000000000000000000000000 V
b00000000000000000000000000000000 W
b00000000000000000000000000000000 X
b00000000000000000000000000000000 Y
b00000000000000000000000000000000 Z
b00000000000000000000000000000000 [
b00000000000000000000000000000000 \
b00000000000000000000000000000100 ]
b00000000000000000000000000000100 ^
b00000000000000000000000011111111 _
b00000000000000000000000000000000 `
b00000000000000000000000000000000 a
b00000000000000000000000000000000 b
1c
0d
b00000000000000000000000000000000 e
b00000000000000000000000000100000 f
b00000000000000000000000000000101 g
b00000000000000000000000000001000 h
#1
0c
#2
b00000000000000000000000000000100 #
b00000000000000000000000000000000 $
b00000000000000000000010100010011 &
b00000000000000000000000000000000 -
b00000000000000000000000000000000 /
b000000000000 8
b01010 9
b00000 :
b00000000000000000000000000000000 <
b00000000000000000000000011111111 C
b00000000000000000000000000001000 ]
b00000000000000000000000000001000 ^
b00000000000000000000000000000100 _
1c
#3
0c
#4
b00000000000000000000000000001000 #
b00000000000001011010010100000011 &
1,
b01011 1
b0000011 2
b010 3
b00 6
b00000000000000000000000000001100 ]
b00000000000000000000000000001100 ^
b00000000000000000000000000001000 _
1c
#5
0c
#6
b00000000000000000000000000001100 #
b00000000000001011000010100010011 &
0,
b0010011 2
b000 3
b10 6
b00000000000000000000000000010000 ]
b00000000000000000000000000010000 ^
b00000000000000000000000000001100 _
1c
#7
0c
#8
b00000000000000000000000000010000 #
b00000000000000000000000000000001 $
b00000000000101011000010110010011 &
b00000000000000000000000000000001 -
b00000000000000000000000000000001 /
b000000000001 8
b01011 9
b00001 :
b00000000000000000000000000000001 <
b00000000000000000000000000010100 ]
b00000000000000000000000000010100 ^
b00000000000000000000000000010001 _
1c
#9
0c
#10
b00000000000000000000000000010100 #
b11111111111111111111111111111000 $
1%
b11111110011001011001110011100011 &
b001 (
0)
0*
b11111111111111111111111100000010 -
b00000000000000000000000011111111 .
b11111111111111111111111100000010 /
b10 0
b1100011 2
b001 3
14
15
b01 6
17
b111111100110 8
b11001 9
b00110 :
b00000000000000000000000000000001 ;
b00000000000000000000000011111111 <
b00000000000000000000000000000001 H
b00000000000000000000000000001100 ]
b00000000000000000000000000011000 ^
b00000000000000000000000000001100 _
1c
#11
0c
#12
b00000000000000000000000000001100 #
b00000000000000000000000000000000 $
0%
b00000000000001011000010100010011 &
b000 (
1)
1*
b00000000000000000000000000000001 -
b00000000000000000000000000000000 .
b00000000000000000000000000000001 /
b00 0
b0010011 2
b000 3
04
05
b10 6
07
b000000000000 8
b01010 9
b00000 :
b00000000000000000000000000000000 <
b00000000000000000000000000010000 ]
b00000000000000000000000000010000 ^
1c
#13
0c
#14
b00000000000000000000000000010000 #
b00000000000000000000000000000001 $
b00000000000101011000010110010011 &
b00000000000000000000000000000010 -
b00000000000000000000000000000010 /
b000000000001 8
b01011 9
b00001 :
b00000000000000000000000000000001 <
b00000000000000000000000000000001 G
b00000000000000000000000000010100 ]
b00000000000000000000000000010100 ^
b00000000000000000000000000010001 _
1c
b00000000000000000000000000000001 e
#15
0c
#16
b00000000000000000000000000010100 #
b11111111111111111111111111111000 $
1%
b11111110011001011001110011100011 &
b001 (
0)
0*
b11111111111111111111111100000011 -
b00000000000000000000000011111111 .
b11111111111111111111111100000011 /
b10 0
b1100011 2
b001 3
14
15
b01 6
17
b111111100110 8
b11001 9
b00110 :
b00000000000000000000000000000010 ;
b00000000000000000000000011111111 <
b00000000000000000000000000000010 H
b00000000000000000000000000001100 ]
b00000000000000000000000000011000 ^
b00000000000000000000000000001100 _
1c
#17
0c
#18
b00000000000000000000000000001100 #
b00000000000000000000000000000000 $
0%
b00000000000001011000010100010011 &
b000 (
1)
1*
b00000000000000000000000000000010 -
b00000000000000000000000000000000 .
b00000000000000000000000000000010 /
b00 0
b0010011 2
b000 3
04
05
b10 6
07
b000000000000 8
b01010 9
b00000 :
b00000000000000000000000000000000 <
b00000000000000000000000000010000 ]
b00000000000000000000000000010000 ^
1c
#19
0c
#20
b00000000000000000000000000010000 #
b00000000000000000000000000000001 $
b00000000000101011000010110010011 &
b00000000000000000000000000000011 -
b00000000000000000000000000000011 /
b000000000001 8
b01011 9
b00001 :
b00000000000000000000000000000001 <
b00000000000000000000000000000010 G
b00000000000000000000000000010100 ]
b00000000000000000000000000010100 ^
b00000000000000000000000000010001 _
1c
b00000000000000000000000000000010 e
#21
0c
#22
b00000000000000000000000000010100 #
b11111111111111111111111111111000 $
1%
b11111110011001011001110011100011 &
b001 (
0)
0*
b11111111111111111111111100000100 -
b00000000000000000000000011111111 .
b11111111111111111111111100000100 /
b10 0
b1100011 2
b001 3
14
15
b01 6
17
b111111100110 8
b11001 9
b00110 :
b00000000000000000000000000000011 ;
b00000000000000000000000011111111 <
b00000000000000000000000000000011 H
b00000000000000000000000000001100 ]
b00000000000000000000000000011000 ^
b00000000000000000000000000001100 _
1c
#23
0c
#24
b00000000000000000000000000001100 #
b00000000000000000000000000000000 $
0%
b00000000000001011000010100010011 &
b000 (
1)
1*
b00000000000000000000000000000011 -
b00000000000000000000000000000000 .
b00000000000000000000000000000011 /
b00 0
b0010011 2
b000 3
04
05
b10 6
07
b000000000000 8
b01010 9
b00000 :
b00000000000000000000000000000000 <
b00000000000000000000000000010000 ]
b00000000000000000000000000010000 ^
1c
#25
0c
#26
b00000000000000000000000000010000 #
b00000000000000000000000000000001 $
b00000000000101011000010110010011 &
b00000000000000000000000000000100 -
b00000000000000000000000000000100 /
b000000000001 8
b01011 9
b00001 :
b00000000000000000000000000000001 <
b00000000000000000000000000000011 G
b00000000000000000000000000010100 ]
b00000000000000000000000000010100 ^
b00000000000000000000000000010001 _
1c
b00000000000000000000000000000011 e
#27
0c
#28
b00000000000000000000000000010100 #
b11111111111111111111111111111000 $
1%
b11111110011001011001110011100011 &
b001 (
0)
0*
b11111111111111111111111100000101 -
b00000000000000000000000011111111 .
b11111111111111111111111100000101 /
b10 0
b1100011 2
b001 3
14
15
b01 6
17
b111111100110 8
b11001 9
b00110 :
b00000000000000000000000000000100 ;
b00000000000000000000000011111111 <
b00000000000000000000000000000100 H
b00000000000000000000000000001100 ]
b00000000000000000000000000011000 ^
b00000000000000000000000000001100 _
1c
#29
0c
#30
b00000000000000000000000000001100 #
b00000000000000000000000000000000 $
0%
b00000000000001011000010100010011 &
b000 (
1)
1*
b00000000000000000000000000000100 -
b00000000000000000000000000000000 .
b00000000000000000000000000000100 /
b00 0
b0010011 2
b000 3
04
05
b10 6
07
b000000000000 8
b01010 9
b00000 :
b00000000000000000000000000000000 <
b00000000000000000000000000010000 ]
b00000000000000000000000000010000 ^
1c
#31
0c
#32
b00000000000000000000000000010000 #
b00000000000000000000000000000001 $
b00000000000101011000010110010011 &
b00000000000000000000000000000101 -
b00000000000000000000000000000101 /
b000000000001 8
b01011 9
b00001 :
b00000000000000000000000000000001 <
b00000000000000000000000000000100 G
b00000000000000000000000000010100 ]
b00000000000000000000000000010100 ^
b00000000000000000000000000010001 _
1c
b00000000000000000000000000000100 e
#33
0c
#34
b00000000000000000000000000010100 #
b11111111111111111111111111111000 $
1%
b11111110011001011001110011100011 &
b001 (
0)
0*
b11111111111111111111111100000110 -
b00000000000000000000000011111111 .
b11111111111111111111111100000110 /
b10 0
b1100011 2
b001 3
14
15
b01 6
17
b111111100110 8
b11001 9
b00110 :
b00000000000000000000000000000101 ;
b00000000000000000000000011111111 <
b00000000000000000000000000000101 H
b00000000000000000000000000001100 ]
b00000000000000000000000000011000 ^
b00000000000000000000000000001100 _
1c
#35
0c
#36
b00000000000000000000000000001100 #
b00000000000000000000000000000000 $
0%
b00000000000001011000010100010011 &
b000 (
1)
1*
b00000000000000000000000000000101 -
b00000000000000000000000000000000 .
b00000000000000000000000000000101 /
b00 0
b0010011 2
b000 3
04
05
b10 6
07
b000000000000 8
b01010 9
b00000 :
b00000000000000000000000000000000 <
b00000000000000000000000000010000 ]
b00000000000000000000000000010000 ^
1c
#37
0c
#38
b00000000000000000000000000010000 #
b00000000000000000000000000000001 $
b00000000000101011000010110010011 &
b00000000000000000000000000000110 -
b00000000000000000000000000000110 /
b000000000001 8
b01011 9
b00001 :
b00000000000000000000000000000001 <
b00000000000000000000000000000101 G
b00000000000000000000000000010100 ]
b00000000000000000000000000010100 ^
b00000000000000000000000000010001 _
1c
b00000000000000000000000000000101 e
#39
0c
#40
b00000000000000000000000000010100 #
b11111111111111111111111111111000 $
1%
b11111110011001011001110011100011 &
b001 (
0)
0*
b11111111111111111111111100000111 -
b00000000000000000000000011111111 .
b11111111111111111111111100000111 /
b10 0
b1100011 2
b001 3
14
15
b01 6
17
b111111100110 8
b11001 9
b00110 :
b00000000000000000000000000000110 ;
b00000000000000000000000011111111 <
b00000000000000000000000000000110 H
b00000000000000000000000000001100 ]
b00000000000000000000000000011000 ^
b00000000000000000000000000001100 _
1c
#41
0c
#42
b00000000000000000000000000001100 #
b00000000000000000000000000000000 $
0%
b00000000000001011000010100010011 &
b000 (
1)
1*
b00000000000000000000000000000110 -
b00000000000000000000000000000000 .
b00000000000000000000000000000110 /
b00 0
b0010011 2
b000 3
04
05
b10 6
07
b000000000000 8
b01010 9
b00000 :
b00000000000000000000000000000000 <
b00000000000000000000000000010000 ]
b00000000000000000000000000010000 ^
1c
#43
0c
#44
b00000000000000000000000000010000 #
b00000000000000000000000000000001 $
b00000000000101011000010110010011 &
b00000000000000000000000000000111 -
b00000000000000000000000000000111 /
b000000000001 8
b01011 9
b00001 :
b00000000000000000000000000000001 <
b00000000000000000000000000000110 G
b00000000000000000000000000010100 ]
b00000000000000000000000000010100 ^
b00000000000000000000000000010001 _
1c
b00000000000000000000000000000110 e
#45
0c
#46
b00000000000000000000000000010100 #
b11111111111111111111111111111000 $
1%
b11111110011001011001110011100011 &
b001 (
0)
0*
b11111111111111111111111100001000 -
b00000000000000000000000011111111 .
b11111111111111111111111100001000 /
b10 0
b1100011 2
b001 3
14
15
b01 6
17
b111111100110 8
b11001 9
b00110 :
b00000000000000000000000000000111 ;
b00000000000000000000000011111111 <
b00000000000000000000000000000111 H
b00000000000000000000000000001100 ]
b00000000000000000000000000011000 ^
b00000000000000000000000000001100 _
1c
#47
0c
#48
b00000000000000000000000000001100 #
b00000000000000000000000000000000 $
0%
b00000000000001011000010100010011 &
b000 (
1)
1*
b00000000000000000000000000000111 -
b00000000000000000000000000000000 .
b00000000000000000000000000000111 /
b00 0
b0010011 2
b000 3
04
05
b10 6
07
b000000000000 8
b01010 9
b00000 :
b00000000000000000000000000000000 <
b00000000000000000000000000010000 ]
b00000000000000000000000000010000 ^
1c
#49
0c
#50
b00000000000000000000000000010000 #
b00000000000000000000000000000001 $
b00000000000101011000010110010011 &
b00000000000000000000000000001000 -
b00000000000000000000000000001000 /
b000000000001 8
b01011 9
b00001 :
b00000000000000000000000000000001 <
b00000000000000000000000000000111 G
b00000000000000000000000000010100 ]
b00000000000000000000000000010100 ^
b00000000000000000000000000010001 _
1c
b00000000000000000000000000000111 e
#51
0c
#52
b00000000000000000000000000010100 #
b11111111111111111111111111111000 $
1%
b11111110011001011001110011100011 &
b001 (
0)
0*
b11111111111111111111111100001001 -
b00000000000000000000000011111111 .
b11111111111111111111111100001001 /
b10 0
b1100011 2
b001 3
14
15
b01 6
17
b111111100110 8
b11001 9
b00110 :
b00000000000000000000000000001000 ;
b00000000000000000000000011111111 <
b00000000000000000000000000001000 H
b00000000000000000000000000001100 ]
b00000000000000000000000000011000 ^
b00000000000000000000000000001100 _
1c
#53
0c
#54
b00000000000000000000000000001100 #
b00000000000000000000000000000000 $
0%
b00000000000001011000010100010011 &
b000 (
1)
1*
b00000000000000000000000000001000 -
b00000000000000000000000000000000 .
b00000000000000000000000000001000 /
b00 0
b0010011 2
b000 3
04
05
b10 6
07
b000000000000 8
b01010 9
b00000 :
b00000000000000000000000000000000 <
b00000000000000000000000000010000 ]
b00000000000000000000000000010000 ^
1c
#55
0c
#56
b00000000000000000000000000010000 #
b00000000000000000000000000000001 $
b00000000000101011000010110010011 &
b00000000000000000000000000001001 -
b00000000000000000000000000001001 /
b000000000001 8
b01011 9
b00001 :
b00000000000000000000000000000001 <
b00000000000000000000000000001000 G
b00000000000000000000000000010100 ]
b00000000000000000000000000010100 ^
b00000000000000000000000000010001 _
1c
b00000000000000000000000000001000 e
#57
0c
#58
b00000000000000000000000000010100 #
b11111111111111111111111111111000 $
1%
b11111110011001011001110011100011 &
b001 (
0)
0*
b11111111111111111111111100001010 -
b00000000000000000000000011111111 .
b11111111111111111111111100001010 /
b10 0
b1100011 2
b001 3
14
15
b01 6
17
b111111100110 8
b11001 9
b00110 :
b00000000000000000000000000001001 ;
b00000000000000000000000011111111 <
b00000000000000000000000000001001 H
b00000000000000000000000000001100 ]
b00000000000000000000000000011000 ^
b00000000000000000000000000001100 _
1c
#59
0c
#60
b00000000000000000000000000001100 #
b00000000000000000000000000000000 $
0%
b00000000000001011000010100010011 &
b000 (
1)
1*
b00000000000000000000000000001001 -
b00000000000000000000000000000000 .
b00000000000000000000000000001001 /
b00 0
b0010011 2
b000 3
04
05
b10 6
07
b000000000000 8
b01010 9
b00000 :
b00000000000000000000000000000000 <
b00000000000000000000000000010000 ]
b00000000000000000000000000010000 ^
1c
#61
0c
#62
b00000000000000000000000000010000 #
b00000000000000000000000000000001 $
b00000000000101011000010110010011 &
b00000000000000000000000000001010 -
b00000000000000000000000000001010 /
b000000000001 8
b01011 9
b00001 :
b00000000000000000000000000000001 <
b00000000000000000000000000001001 G
b00000000000000000000000000010100 ]
b00000000000000000000000000010100 ^
b00000000000000000000000000010001 _
1c
b00000000000000000000000000001001 e
#63
0c
#64
b00000000000000000000000000010100 #
b11111111111111111111111111111000 $
1%
b11111110011001011001110011100011 &
b001 (
0)
0*
b11111111111111111111111100001011 -
b00000000000000000000000011111111 .
b11111111111111111111111100001011 /
b10 0
b1100011 2
b001 3
14
15
b01 6
17
b111111100110 8
b11001 9
b00110 :
b00000000000000000000000000001010 ;
b00000000000000000000000011111111 <
b00000000000000000000000000001010 H
b00000000000000000000000000001100 ]
b00000000000000000000000000011000 ^
b00000000000000000000000000001100 _
1c
#65
0c
#66
b00000000000000000000000000001100 #
b00000000000000000000000000000000 $
0%
b00000000000001011000010100010011 &
b000 (
1)
1*
b00000000000000000000000000001010 -
b00000000000000000000000000000000 .
b00000000000000000000000000001010 /
b00 0
b0010011 2
b000 3
04
05
b10 6
07
b000000000000 8
b01010 9
b00000 :
b00000000000000000000000000000000 <
b00000000000000000000000000010000 ]
b00000000000000000000000000010000 ^
1c
#67
0c
#68
b00000000000000000000000000010000 #
b00000000000000000000000000000001 $
b00000000000101011000010110010011 &
b00000000000000000000000000001011 -
b00000000000000000000000000001011 /
b000000000001 8
b01011 9
b00001 :
b00000000000000000000000000000001 <
b00000000000000000000000000001010 G
b00000000000000000000000000010100 ]
b00000000000000000000000000010100 ^
b00000000000000000000000000010001 _
1c
b00000000000000000000000000001010 e
#69
0c
#70
b00000000000000000000000000010100 #
b11111111111111111111111111111000 $
1%
b11111110011001011001110011100011 &
b001 (
0)
0*
b11111111111111111111111100001100 -
b00000000000000000000000011111111 .
b11111111111111111111111100001100 /
b10 0
b1100011 2
b001 3
14
15
b01 6
17
b111111100110 8
b11001 9
b00110 :
b00000000000000000000000000001011 ;
b00000000000000000000000011111111 <
b00000000000000000000000000001011 H
b00000000000000000000000000001100 ]
b00000000000000000000000000011000 ^
b00000000000000000000000000001100 _
1c
#71
0c
#72
b00000000000000000000000000001100 #
b00000000000000000000000000000000 $
0%
b00000000000001011000010100010011 &
b000 (
1)
1*
b00000000000000000000000000001011 -
b00000000000000000000000000000000 .
b00000000000000000000000000001011 /
b00 0
b0010011 2
b000 3
04
05
b10 6
07
b000000000000 8
b01010 9
b00000 :
b00000000000000000000000000000000 <
b00000000000000000000000000010000 ]
b00000000000000000000000000010000 ^
1c
#73
0c
#74
b00000000000000000000000000010000 #
b00000000000000000000000000000001 $
b00000000000101011000010110010011 &
b00000000000000000000000000001100 -
b00000000000000000000000000001100 /
b000000000001 8
b01011 9
b00001 :
b00000000000000000000000000000001 <
b00000000000000000000000000001011 G
b00000000000000000000000000010100 ]
b00000000000000000000000000010100 ^
b00000000000000000000000000010001 _
1c
b00000000000000000000000000001011 e
#75
0c
#76
b00000000000000000000000000010100 #
b11111111111111111111111111111000 $
1%
b11111110011001011001110011100011 &
b001 (
0)
0*
b11111111111111111111111100001101 -
b00000000000000000000000011111111 .
b11111111111111111111111100001101 /
b10 0
b1100011 2
b001 3
14
15
b01 6
17
b111111100110 8
b11001 9
b00110 :
b00000000000000000000000000001100 ;
b00000000000000000000000011111111 <
b00000000000000000000000000001100 H
b00000000000000000000000000001100 ]
b00000000000000000000000000011000 ^
b00000000000000000000000000001100 _
1c
#77
0c
#78
b00000000000000000000000000001100 #
b00000000000000000000000000000000 $
0%
b00000000000001011000010100010011 &
b000 (
1)
1*
b00000000000000000000000000001100 -
b00000000000000000000000000000000 .
b00000000000000000000000000001100 /
b00 0
b0010011 2
b000 3
04
05
b10 6
07
b000000000000 8
b01010 9
b00000 :
b00000000000000000000000000000000 <
b00000000000000000000000000010000 ]
b00000000000000000000000000010000 ^
1c
#79
0c
#80
b00000000000000000000000000010000 #
b00000000000000000000000000000001 $
b00000000000101011000010110010011 &
b00000000000000000000000000001101 -
b00000000000000000000000000001101 /
b000000000001 8
b01011 9
b00001 :
b00000000000000000000000000000001 <
b00000000000000000000000000001100 G
b00000000000000000000000000010100 ]
b00000000000000000000000000010100 ^
b00000000000000000000000000010001 _
1c
b00000000000000000000000000001100 e
#81
0c
#82
b00000000000000000000000000010100 #
b11111111111111111111111111111000 $
1%
b11111110011001011001110011100011 &
b001 (
0)
0*
b11111111111111111111111100001110 -
b00000000000000000000000011111111 .
b11111111111111111111111100001110 /
b10 0
b1100011 2
b001 3
14
15
b01 6
17
b111111100110 8
b11001 9
b00110 :
b00000000000000000000000000001101 ;
b00000000000000000000000011111111 <
b00000000000000000000000000001101 H
b00000000000000000000000000001100 ]
b00000000000000000000000000011000 ^
b00000000000000000000000000001100 _
1c
#83
0c
#84
b00000000000000000000000000001100 #
b00000000000000000000000000000000 $
0%
b00000000000001011000010100010011 &
b000 (
1)
1*
b00000000000000000000000000001101 -
b00000000000000000000000000000000 .
b00000000000000000000000000001101 /
b00 0
b0010011 2
b000 3
04
05
b10 6
07
b000000000000 8
b01010 9
b00000 :
b00000000000000000000000000000000 <
b00000000000000000000000000010000 ]
b00000000000000000000000000010000 ^
1c
#85
0c
#86
b00000000000000000000000000010000 #
b00000000000000000000000000000001 $
b00000000000101011000010110010011 &
b00000000000000000000000000001110 -
b00000000000000000000000000001110 /
b000000000001 8
b01011 9
b00001 :
b00000000000000000000000000000001 <
b00000000000000000000000000001101 G
b00000000000000000000000000010100 ]
b00000000000000000000000000010100 ^
b00000000000000000000000000010001 _
1c
b00000000000000000000000000001101 e
#87
0c
#88
b00000000000000000000000000010100 #
b11111111111111111111111111111000 $
1%
b11111110011001011001110011100011 &
b001 (
0)
0*
b11111111111111111111111100001111 -
b00000000000000000000000011111111 .
b11111111111111111111111100001111 /
b10 0
b1100011 2
b001 3
14
15
b01 6
17
b111111100110 8
b11001 9
b00110 :
b00000000000000000000000000001110 ;
b00000000000000000000000011111111 <
b00000000000000000000000000001110 H
b00000000000000000000000000001100 ]
b00000000000000000000000000011000 ^
b00000000000000000000000000001100 _
1c
#89
0c
#90
b00000000000000000000000000001100 #
b00000000000000000000000000000000 $
0%
b00000000000001011000010100010011 &
b000 (
1)
1*
b00000000000000000000000000001110 -
b00000000000000000000000000000000 .
b00000000000000000000000000001110 /
b00 0
b0010011 2
b000 3
04
05
b10 6
07
b000000000000 8
b01010 9
b00000 :
b00000000000000000000000000000000 <
b00000000000000000000000000010000 ]
b00000000000000000000000000010000 ^
1c
#91
0c
#92
b00000000000000000000000000010000 #
b00000000000000000000000000000001 $
b00000000000101011000010110010011 &
b00000000000000000000000000001111 -
b00000000000000000000000000001111 /
b000000000001 8
b01011 9
b00001 :
b00000000000000000000000000000001 <
b00000000000000000000000000001110 G
b00000000000000000000000000010100 ]
b00000000000000000000000000010100 ^
b00000000000000000000000000010001 _
1c
b00000000000000000000000000001110 e
#93
0c
